hw5.utf8
…
b.Provide a visual breakdown of the liquor category (by Category Name). Include volume sold in the breakdown.

cleanLiquor%>% group_by(`Category Name`)%>% summarize('Liters Sold' = sum(`Volume Sold (Liters)`), 'Gallons Sold' = sum(`Volume Sold (Gallons)`)) 

## # A tibble: 52 x 3
##    `Category Name`                      `Liters Sold` `Gallons Sold`
##    <chr>                                        <dbl>          <dbl>
##  1 100% Agave Tequila                           9128.        2398.  
##  2 Aged Dark Rum                                1184          311.  
##  3 American Brandies                            6833.        1797.  
##  4 American Cordials & Liqueur                  4965.        1304.  
##  5 American Distilled Spirit Specialty           305.          80.0 
##  6 American Distilled Spirits Specialty            9            2.36
##  7 American Dry Gins                           12233.        3224.  
##  8 American Flavored Vodka                     31087.        8187.  
##  9 American Schnapps                           11353         2991.  
## 10 American Sloe Gins                             42           11.1 
## # ... with 42 more rows
…
As seen above, American Vodkas is the alcohol with the mist sales by a lot.This is probably due to the cost and availability of this type of product. Moreover, I did not expect that Canadian Whiskey would be the second most sold alcohol.

There is also a table provided to compare exact gallon and liter amounts with sales of each of the alcohol products.

4. Find the daily sales liquor sales in Ames in 2019. Summarize the number of sales, volume of liquor sold, and amount of money spent.

sales <- cleanLiquor%>% group_by(Year, Month, Day) %>% summarise("Num. Sold" = n(), "Volume Sold (Gallons)"= sum(`Volume Sold (Gallons)`), "Volume Sold (Liters)" = sum(`Volume Sold (Liters)`), "Money Spent" = sum(`Sale (Dollars)`))
sales

## # A tibble: 157 x 7
## # Groups:   Year, Month [31]
##    Year  Month Day   `Num. Sold` `Volume Sold (G~ `Volume Sold (L~ `Money Spent`
##    <chr> <chr> <chr>       <int>            <dbl>            <dbl>         <dbl>
##  1 2019  01    02            137           333.              1263.       19438. 
##  2 2019  01    03            179           410.              1557.       22531. 
##  3 2019  01    05            118           558.              2115.       31963. 
##  4 2019  01    08            552           717.              2728.       44361. 
##  5 2019  01    10             26            49.0              186         3526. 
##  6 2019  01    11             44           172.               652.        6512. 
##  7 2019  02    05           1173          2261.              8585.      132643. 
##  8 2019  02    07              1             0.26               1           18.8
##  9 2019  02    08             57            65.6              249.        4046. 
## 10 2019  02    10            441          1131.              4288.       65284. 
## # ... with 147 more rows
…
